<?xml version="1.0" encoding="UTF-8" standalone="no"?>
<!-- Created with Inkscape (http://www.inkscape.org/) -->
<svg
   xmlns:dc="http://purl.org/dc/elements/1.1/"
   xmlns:cc="http://web.resource.org/cc/"
   xmlns:rdf="http://www.w3.org/1999/02/22-rdf-syntax-ns#"
   xmlns:svg="http://www.w3.org/2000/svg"
   xmlns="http://www.w3.org/2000/svg"
   xmlns:xlink="http://www.w3.org/1999/xlink"
   xmlns:sodipodi="http://sodipodi.sourceforge.net/DTD/sodipodi-0.dtd"
   xmlns:inkscape="http://www.inkscape.org/namespaces/inkscape"
   width="248.64462"
   height="256.67929"
   id="svg2"
   sodipodi:version="0.32"
   inkscape:version="0.45.1"
   sodipodi:docbase="/home/nyall/Sources/gcstar"
   sodipodi:docname="star.svg"
   inkscape:output_extension="org.inkscape.output.svg.inkscape"
   version="1.0"
   inkscape:export-filename="/home/nyall/Sources/gcstar/star.png"
   inkscape:export-xdpi="17.200001"
   inkscape:export-ydpi="17.200001">
  <defs
     id="defs4">
    <linearGradient
       id="linearGradient3145">
      <stop
         style="stop-color:#c0f1f3;stop-opacity:1;"
         offset="0"
         id="stop3147" />
      <stop
         style="stop-color:#2396a3;stop-opacity:1;"
         offset="1"
         id="stop3149" />
    </linearGradient>
    <radialGradient
       inkscape:collect="always"
       xlink:href="#linearGradient3145"
       id="radialGradient3171"
       cx="-408.60669"
       cy="413.30972"
       fx="-408.60669"
       fy="413.30972"
       r="17.795559"
       gradientTransform="matrix(1,0,0,0.954907,0,18.637387)"
       gradientUnits="userSpaceOnUse" />
    <filter
       inkscape:collect="always"
       id="filter3693">
      <feGaussianBlur
         inkscape:collect="always"
         stdDeviation="1.0228894"
         id="feGaussianBlur3695" />
    </filter>
    <radialGradient
       inkscape:collect="always"
       xlink:href="#linearGradient3145"
       id="radialGradient3717"
       gradientUnits="userSpaceOnUse"
       gradientTransform="matrix(1,0,0,0.954907,0,18.637387)"
       cx="-408.60669"
       cy="413.30972"
       fx="-408.60669"
       fy="413.30972"
       r="17.795559" />
  </defs>
  <sodipodi:namedview
     id="base"
     pagecolor="#ffffff"
     bordercolor="#666666"
     borderopacity="1.0"
     gridtolerance="10000"
     guidetolerance="10"
     objecttolerance="10"
     inkscape:pageopacity="0.0"
     inkscape:pageshadow="2"
     inkscape:zoom="0.9899495"
     inkscape:cx="164.0697"
     inkscape:cy="91.390142"
     inkscape:document-units="px"
     inkscape:current-layer="layer1"
     inkscape:window-width="872"
     inkscape:window-height="627"
     inkscape:window-x="182"
     inkscape:window-y="73" />
  <metadata
     id="metadata7">
    <rdf:RDF>
      <cc:Work
         rdf:about="">
        <dc:format>image/svg+xml</dc:format>
        <dc:type
           rdf:resource="http://purl.org/dc/dcmitype/StillImage" />
      </cc:Work>
    </rdf:RDF>
  </metadata>
  <g
     inkscape:label="Layer 1"
     inkscape:groupmode="layer"
     id="layer1"
     transform="translate(-26.907326,-55.207839)">
    <path
       sodipodi:type="star"
       style="opacity:1;fill:url(#radialGradient3171);fill-opacity:1;stroke:#ffffff;stroke-width:10;stroke-linecap:round;stroke-linejoin:round;stroke-miterlimit:4;stroke-dasharray:none;stroke-opacity:1;filter:url(#filter3693)"
       id="path3177"
       sodipodi:sides="5"
       sodipodi:cx="-408.60669"
       sodipodi:cy="414.95593"
       sodipodi:r1="17.239311"
       sodipodi:r2="8.1911087"
       sodipodi:arg1="-1.5707963"
       sodipodi:arg2="-0.94247777"
       inkscape:flatsided="false"
       inkscape:rounded="0"
       inkscape:randomized="0"
       d="M -408.60669,397.71662 L -403.79208,408.32919 L -392.21113,409.62869 L -400.81648,417.48712 L -398.47368,428.90283 L -408.60669,423.14704 L -418.7397,428.90283 L -416.3969,417.48712 L -425.00225,409.62869 L -413.4213,408.32919 L -408.60669,397.71662 z "
       transform="matrix(5.7529184,1.7040921,-1.7040921,5.7529184,3199.9556,-1506.52)" />
    <path
       sodipodi:type="star"
       style="fill:url(#radialGradient3717);fill-opacity:1;stroke:#0060dd;stroke-width:3.33333325;stroke-linecap:round;stroke-linejoin:round;stroke-miterlimit:4;stroke-dasharray:none;stroke-opacity:1"
       id="path3163"
       sodipodi:sides="5"
       sodipodi:cx="-408.60669"
       sodipodi:cy="414.95593"
       sodipodi:r1="17.239311"
       sodipodi:r2="8.1911087"
       sodipodi:arg1="-1.5707963"
       sodipodi:arg2="-0.94247777"
       inkscape:flatsided="false"
       inkscape:rounded="0"
       inkscape:randomized="0"
       d="M -408.60669,397.71662 L -403.79208,408.32919 L -392.21113,409.62869 L -400.81648,417.48712 L -398.47368,428.90283 L -408.60669,423.14704 L -418.7397,428.90283 L -416.3969,417.48712 L -425.00225,409.62869 L -413.4213,408.32919 L -408.60669,397.71662 z "
       transform="matrix(5.7529184,1.7040921,-1.7040921,5.7529184,3199.9556,-1506.52)" />
  </g>
</svg>
